%YAML 1.1
%TAG !u! tag:unity3d.com,2011:
--- !u!1 &7149176388401811131
GameObject:
  m_ObjectHideFlags: 0
  m_CorrespondingSourceObject: {fileID: 0}
  m_PrefabInstance: {fileID: 0}
  m_PrefabAsset: {fileID: 0}
  serializedVersion: 6
  m_Component:
  - component: {fileID: 2128670112579497159}
  m_Layer: 0
  m_Name: Ligne 60
  m_TagString: Untagged
  m_Icon: {fileID: 0}
  m_NavMeshLayer: 0
  m_StaticEditorFlags: 0
  m_IsActive: 1
--- !u!4 &2128670112579497159
Transform:
  m_ObjectHideFlags: 0
  m_CorrespondingSourceObject: {fileID: 0}
  m_PrefabInstance: {fileID: 0}
  m_PrefabAsset: {fileID: 0}
  m_GameObject: {fileID: 7149176388401811131}
  m_LocalRotation: {x: 0, y: 0, z: 0, w: 1}
  m_LocalPosition: {x: 0, y: 0, z: 0}
  m_LocalScale: {x: 1, y: 1, z: 1}
  m_Children:
  - {fileID: 4477974974718545203}
  m_Father: {fileID: 0}
  m_RootOrder: 0
  m_LocalEulerAnglesHint: {x: 0, y: 0, z: 0}
--- !u!1001 &4156347462200421080
PrefabInstance:
  m_ObjectHideFlags: 0
  serializedVersion: 2
  m_Modification:
    m_TransformParent: {fileID: 2128670112579497159}
    m_Modifications:
    - target: {fileID: -8679921383154817045, guid: b123e5570b5a79141b2cf5edf24f9969, type: 3}
      propertyPath: m_RootOrder
      value: 0
      objectReference: {fileID: 0}
    - target: {fileID: -8679921383154817045, guid: b123e5570b5a79141b2cf5edf24f9969, type: 3}
      propertyPath: m_LocalPosition.x
      value: 0
      objectReference: {fileID: 0}
    - target: {fileID: -8679921383154817045, guid: b123e5570b5a79141b2cf5edf24f9969, type: 3}
      propertyPath: m_LocalPosition.y
      value: 0
      objectReference: {fileID: 0}
    - target: {fileID: -8679921383154817045, guid: b123e5570b5a79141b2cf5edf24f9969, type: 3}
      propertyPath: m_LocalPosition.z
      value: 0
      objectReference: {fileID: 0}
    - target: {fileID: -8679921383154817045, guid: b123e5570b5a79141b2cf5edf24f9969, type: 3}
      propertyPath: m_LocalRotation.w
      value: 0.7071067
      objectReference: {fileID: 0}
    - target: {fileID: -8679921383154817045, guid: b123e5570b5a79141b2cf5edf24f9969, type: 3}
      propertyPath: m_LocalRotation.x
      value: -0.7071068
      objectReference: {fileID: 0}
    - target: {fileID: -8679921383154817045, guid: b123e5570b5a79141b2cf5edf24f9969, type: 3}
      propertyPath: m_LocalRotation.y
      value: -0
      objectReference: {fileID: 0}
    - target: {fileID: -8679921383154817045, guid: b123e5570b5a79141b2cf5edf24f9969, type: 3}
      propertyPath: m_LocalRotation.z
      value: -0
      objectReference: {fileID: 0}
    - target: {fileID: -8679921383154817045, guid: b123e5570b5a79141b2cf5edf24f9969, type: 3}
      propertyPath: m_LocalEulerAnglesHint.x
      value: 0
      objectReference: {fileID: 0}
    - target: {fileID: -8679921383154817045, guid: b123e5570b5a79141b2cf5edf24f9969, type: 3}
      propertyPath: m_LocalEulerAnglesHint.y
      value: 0
      objectReference: {fileID: 0}
    - target: {fileID: -8679921383154817045, guid: b123e5570b5a79141b2cf5edf24f9969, type: 3}
      propertyPath: m_LocalEulerAnglesHint.z
      value: 0
      objectReference: {fileID: 0}
    - target: {fileID: -7511558181221131132, guid: b123e5570b5a79141b2cf5edf24f9969, type: 3}
      propertyPath: m_Materials.Array.data[0]
      value: 
      objectReference: {fileID: 2100000, guid: a4438459ca0299e4bacf86b6240dfa99, type: 2}
    - target: {fileID: 919132149155446097, guid: b123e5570b5a79141b2cf5edf24f9969, type: 3}
      propertyPath: m_Name
      value: route droite 60cm (1)
      objectReference: {fileID: 0}
    m_RemovedComponents: []
  m_SourcePrefab: {fileID: 100100000, guid: b123e5570b5a79141b2cf5edf24f9969, type: 3}
--- !u!1 &3850338190728648585 stripped
GameObject:
  m_CorrespondingSourceObject: {fileID: 919132149155446097, guid: b123e5570b5a79141b2cf5edf24f9969, type: 3}
  m_PrefabInstance: {fileID: 4156347462200421080}
  m_PrefabAsset: {fileID: 0}
--- !u!4 &4477974974718545203 stripped
Transform:
  m_CorrespondingSourceObject: {fileID: -8679921383154817045, guid: b123e5570b5a79141b2cf5edf24f9969, type: 3}
  m_PrefabInstance: {fileID: 4156347462200421080}
  m_PrefabAsset: {fileID: 0}
--- !u!65 &299425845083758005
BoxCollider:
  m_ObjectHideFlags: 0
  m_CorrespondingSourceObject: {fileID: 0}
  m_PrefabInstance: {fileID: 0}
  m_PrefabAsset: {fileID: 0}
  m_GameObject: {fileID: 3850338190728648585}
  m_Material: {fileID: 13400000, guid: 4800b46009873f64499901b8f449380e, type: 2}
  m_IsTrigger: 0
  m_Enabled: 1
  serializedVersion: 2
  m_Size: {x: 0.009536476, y: 0.603035, z: 0.086063854}
  m_Center: {x: 0.11035116, y: -0.0000470829, z: 0.028322306}
--- !u!65 &925667383669745639
BoxCollider:
  m_ObjectHideFlags: 0
  m_CorrespondingSourceObject: {fileID: 0}
  m_PrefabInstance: {fileID: 0}
  m_PrefabAsset: {fileID: 0}
  m_GameObject: {fileID: 3850338190728648585}
  m_Material: {fileID: 13400000, guid: 4800b46009873f64499901b8f449380e, type: 2}
  m_IsTrigger: 0
  m_Enabled: 1
  serializedVersion: 2
  m_Size: {x: 0.009551429, y: 0.603035, z: 0.086063854}
  m_Center: {x: -0.10440067, y: -0.000047073365, z: 0.028322306}
