%YAML 1.1
%TAG !u! tag:unity3d.com,2011:
--- !u!114 &11400000
MonoBehaviour:
  m_ObjectHideFlags: 0
  m_CorrespondingSourceObject: {fileID: 0}
  m_PrefabInstance: {fileID: 0}
  m_PrefabAsset: {fileID: 0}
  m_GameObject: {fileID: 0}
  m_Enabled: 1
  m_EditorHideFlags: 0
  m_Script: {fileID: 11500000, guid: 5cf3481c466a99449a893ada4f7f8588, type: 3}
  m_Name: 87DFD647-4617-4430-9CFC-B35EACCC1CEE
  m_EditorClassIdentifier: 
  objectName: Play_Menu_SFX_Back
  id: 4006906111
  guid: 87DFD647-4617-4430-9CFC-B35EACCC1CEE
