%YAML 1.1
%TAG !u! tag:unity3d.com,2011:
--- !u!1045 &1
EditorBuildSettings:
  m_ObjectHideFlags: 0
  serializedVersion: 2
  m_Scenes:
  - enabled: 1
    path: Assets/Scenes/MainMenu.unity
    guid: 850538b1bad8b95409285d540a25bbb4
  - enabled: 1
    path: Assets/Scenes/GameScene.unity
    guid: 711a5c5d62b5e9042a6354564377c06b
  m_configObjects:
    com.unity.input.settings: {fileID: 11400000, guid: 59a8dde85d9cca749a11bffcb2144fa7, type: 2}
